[gd_scene load_steps=7 format=2]

[ext_resource path="res://assets/character1.png" type="Texture" id=1]
[ext_resource path="res://scripts/Player.gd" type="Script" id=2]
[ext_resource path="res://scenes/Weapon.tscn" type="PackedScene" id=3]
[ext_resource path="res://scenes/PlayerStats.tscn" type="PackedScene" id=4]
[ext_resource path="res://scenes/QuestData.tscn" type="PackedScene" id=5]

[sub_resource type="CapsuleShape2D" id=1]
radius = 7.54254
height = 12.7638

[node name="Player" type="KinematicBody2D"]
script = ExtResource( 2 )

[node name="Sprite" type="Sprite" parent="."]
scale = Vector2( 1.1, 1.1 )
texture = ExtResource( 1 )

[node name="CollisionShape2D" type="CollisionShape2D" parent="."]
position = Vector2( 0, 12.5 )
shape = SubResource( 1 )

[node name="Camera2D" type="Camera2D" parent="."]
current = true

[node name="RespawnTimer" type="Timer" parent="."]
wait_time = 6.0

[node name="Weapon" parent="." instance=ExtResource( 3 )]

[node name="PlayerStats" parent="." instance=ExtResource( 4 )]

[node name="QuestData" parent="." instance=ExtResource( 5 )]
[connection signal="timeout" from="RespawnTimer" to="." method="_on_RespawnTimer_timeout"]
